p11=0.9995  
p12=0.03   
p13=0.002 
p14=0.001
p15=0 

p21=0.0005 
p22=0.96
p23=0.004
p24=0.015 
p25=0 

p31=0
p32=0.007
p33=0.98
p34=0.02
p35=0

p41=0
p42=0.003
p43=0.01
p44=0.95
p45=0

p51=0
p52=0
p53=0.004
p54=0.014
p55=1